…
The point estimates for each indicator are long-format tibbles. Let’s
take a look at the tibble for the indicator `contraceptive_use_modern`

``` r
results$Y$contraceptive_use_modern
```

    ## # A tibble: 488 x 3
    ##     year percentile  value
    ##    <int> <chr>       <dbl>
    ##  1  1970 mean       0.0122
    ##  2  1971 mean       0.0130
    ##  3  1972 mean       0.0139
    ##  4  1973 mean       0.0149
    ##  5  1974 mean       0.0160
    ##  6  1975 mean       0.0173
    ##  7  1976 mean       0.0187
    ##  8  1977 mean       0.0201
    ##  9  1978 mean       0.0217
    ## 10  1979 mean       0.0234
    ## # ... with 478 more rows
…
